{
  "project_info": {
    "project_number": "33382961675",
    "project_id": "authenticator-demo-5f25d",
    "storage_bucket": "authenticator-demo-5f25d.appspot.com"
  },
  "client": [
    {
      "client_info": {
        "mobilesdk_app_id": "1:33382961675:android:0c5b4b4593bfe06f68ed0e",
        "android_client_info": {
          "package_name": "com.snake.googleauthenticatorexample"
        }
      },
      "oauth_client": [
        {
          "client_id": "33382961675-t8gk2gekl1lgoo26dfatgu3ant88taa8.apps.googleusercontent.com",
          "client_type": 1,
          "android_info": {
            "package_name": "com.snake.googleauthenticatorexample",
            "certificate_hash": "609073b923126b91d19fcbf0d88eb3af41cd13cd"
          }
        },
        {
          "client_id": "33382961675-s2tj0mmlptg40t49kgerigjnnt17011g.apps.googleusercontent.com",
          "client_type": 3
        }
      ],
      "api_key": [
        {
          "current_key": "AIzaSyD2M8HuGtwgay5wYo1LLM0hLihZ4e0lVXE"
        }
      ],
      "services": {
        "appinvite_service": {
          "other_platform_oauth_client": [
            {
              "client_id": "33382961675-s2tj0mmlptg40t49kgerigjnnt17011g.apps.googleusercontent.com",
              "client_type": 3
            }
          ]
        }
      }
    }
  ],
  "configuration_version": "1"
}